{
  "login": "anonymoususer",
  "password": "$2a$10$j8S5d7Sr7.8VTOYNviDPOeWX8KcYILUVJBsYV83Y5NtECayypx9lO",

  "first_name": "Anonymous",
  "last_name": "User",
  "email": "anonymous@localhost",
  "activated": true,
  "lang_key": "en",
  "created_by": "system",
  "last_modified_by": "system",
  "authorities": [],
  "_class": "com.tiera.neo4jtest.domain.User"
}
